{
    "legacy_addon_id": "",
    "title": "Guzzle6",
    "description": "Guzzle 6 implementation for XenForo 2.0",
    "version_id": 21,
    "version_string": "1.3.0",
    "dev": "Simon Hampel",
    "dev_url": "https://bitbucket.org/hampel/",
    "faq_url": "https://xenforo.com/community/resources/guzzle6-for-xenforo-2.5578/field?field=faq",
    "support_url": "https://bitbucket.org/hampel/guzzle6-xenforo/issues",
    "extra_urls": {
        "Git Repository": "https://bitbucket.org/hampel/guzzle6-xenforo",
        "Twitter": "https://twitter.com/SimonHampel"
    },
    "require": {
        "php": [
            "5.5.0",
            "PHP 5.5.0+"
        ]
    },
    "icon": "fa-cloud"
}